lab8/lab8_code_converter/simulation/qsim/lab8_code_converter.msim.vcd
$comment
	File created using the following command:
		vcd file lab8_code_converter.msim.vcd -direction
$end
$date
	Thu Dec 12 20:32:50 2024
$end
$version
	ModelSim Version 2020.1
$end
$timescale
	1ps
$end

$scope module lab8_code_converter_vlg_vec_tst $end
$var reg 1 ! in2 $end
$var reg 1 " in4 $end
$var reg 1 # in8 $end
$var reg 1 $ in16 $end
$var reg 1 % in32 $end
$var reg 1 & inEO $end
$var wire 1 ' out2_1 $end
$var wire 1 ( out2_2 $end
$var wire 1 ) out4_1 $end
$var wire 1 * out4_2 $end
$var wire 1 + out8_1 $end
$var wire 1 , out8_2 $end
$var wire 1 - out10_1 $end
$var wire 1 . out10_2 $end
$var wire 1 / out20_1 $end
$var wire 1 0 out20_2 $end
$var wire 1 1 out40_1 $end
$var wire 1 2 out40_2 $end

$scope module i1 $end
$var wire 1 3 gnd $end
$var wire 1 4 vcc $end
$var wire 1 5 unknown $end
$var tri1 1 6 devclrn $end
$var tri1 1 7 devpor $end
$var tri1 1 8 devoe $end
$var wire 1 9 out10_1~output_o $end
$var wire 1 : out20_1~output_o $end
$var wire 1 ; out40_1~output_o $end
$var wire 1 < out2_1~output_o $end
$var wire 1 = out4_1~output_o $end
$var wire 1 > out8_1~output_o $end
$var wire 1 ? out2_2~output_o $end
$var wire 1 @ out4_2~output_o $end
$var wire 1 A out8_2~output_o $end
$var wire 1 B out10_2~output_o $end
$var wire 1 C out20_2~output_o $end
$var wire 1 D out40_2~output_o $end
$var wire 1 E inEO~input_o $end
$var wire 1 F in32~input_o $end
$var wire 1 G in2~input_o $end
$var wire 1 H in8~input_o $end
$var wire 1 I in16~input_o $end
$var wire 1 J in4~input_o $end
$var wire 1 K inst4|WideOr2~1_combout $end
$var wire 1 L inst4|WideOr2~0_combout $end
$var wire 1 M inst4|WideOr2~2_combout $end
$var wire 1 N inEO~inputclkctrl_outclk $end
$var wire 1 O inst|BCD10~0_combout $end
$var wire 1 P inst4|WideOr1~0_combout $end
$var wire 1 Q inst|BCD20~0_combout $end
$var wire 1 R inst4|WideOr0~0_combout $end
$var wire 1 S inst|BCD40~0_combout $end
$var wire 1 T inst4|WideOr5~0_combout $end
$var wire 1 U inst4|WideOr5~1_combout $end
$var wire 1 V inst4|WideOr5~2_combout $end
$var wire 1 W inst|BCD2~0_combout $end
$var wire 1 X inst4|WideOr4~0_combout $end
$var wire 1 Y inst4|WideOr4~1_combout $end
$var wire 1 Z inst4|WideOr4~2_combout $end
$var wire 1 [ inst|BCD4~0_combout $end
$var wire 1 \ inst4|WideOr3~0_combout $end
$var wire 1 ] inst4|WideOr3~1_combout $end
$var wire 1 ^ inst4|WideOr3~2_combout $end
$var wire 1 _ inst|BCD8~0_combout $end
$var wire 1 ` inst4|BCD2~0_combout $end
$var wire 1 a inst4|BCD4~0_combout $end
$var wire 1 b inst4|BCD8~0_combout $end
$var wire 1 c inst4|BCD10~0_combout $end
$var wire 1 d inst4|BCD20~0_combout $end
$var wire 1 e inst4|BCD40~0_combout $end
$var wire 1 f inst|bcd_code [5] $end
$var wire 1 g inst|bcd_code [4] $end
$var wire 1 h inst|bcd_code [3] $end
$var wire 1 i inst|bcd_code [2] $end
$var wire 1 j inst|bcd_code [1] $end
$var wire 1 k inst|bcd_code [0] $end
$upscope $end
$upscope $end
$enddefinitions $end
#0
$dumpvars
0!
0"
0#
0$
0%
0&
0'
0(
0)
0*
0+
0,
0-
0.
0/
00
01
02
03
14
x5
16
17
18
09
0:
0;
0<
0=
0>
0?
0@
0A
0B
0C
0D
0E
0F
0G
0H
0I
0J
0K
0L
0M
0N
0O
0P
0Q
1R
0S
0T
0U
0V
0W
0X
0Y
0Z
0[
0\
0]
0^
0_
0`
0a
0b
0c
0d
0e
0k
0j
0i
0h
0g
0f
$end
#38462
1&
1E
1N
1e
1d
1c
1b
1a
1`
1_
1[
1W
1S
1Q
1O
19
1:
1;
1<
1=
1>
1?
1@
1A
1B
1C
1D
12
10
1.
1,
1*
1(
1+
1)
1'
11
1/
1-
#45455
1%
1F
1\
1Y
1V
1P
1M
#71429
1#
1$
1H
1I
0\
0Y
0R
0P
1^
0^
1Z
#76923
0&
0E
0N
1j
1k
1f
1h
0d
0b
0_
0[
0W
0S
0Q
0O
09
0:
0;
0<
0=
0>
0A
0C
00
0,
0+
0)
0'
01
0/
0-
1[
1W
1S
1O
19
1;
1<
1=
1)
1'
11
1-
#90909
0%
0F
1]
0V
1R
1P
0M
0e
0c
0`
0?
0B
0D
0k
0f
1g
0h
02
0.
0(
1d
1C
10
0W
0S
1Q
0O
09
1:
0;
0<
0'
01
1/
0-
#100000
1"
1J
0]
1\
1Y
1U
1K
1^
0Z
1b
0a
0@
1A
1i
0j
1,
0*
1_
0[
0=
1>
1+
0)
#115385
1&
1E
1N
1e
1c
1a
1`
1[
1W
1S
1O
19
1;
1<
1=
1?
1@
1B
1D
12
1.
1*
1(
1)
1'
11
1-
#136364
1%
1F
0\
1X
0R
0^
#142857
0#
0$
0H
0I
0U
1R
0K
1Z
1V
1M
#153846
0&
0E
0N
0i
1j
1k
1h
0e
0b
0[
0W
0S
0O
09
0;
0<
0=
0A
0D
02
0,
0)
0'
01
0-
0_
1[
1W
1O
19
1<
1=
0>
0+
1)
1'
1-
#166667
1!
1G
1]
0Y
0X
1U
1T
1^
0Z
0V
1b
0a
0`
0?
0@
1A
1i
0j
0k
1,
0*
0(
1_
0[
0W
0<
0=
1>
1+
0)
0'
#181818
0%
0F
0]
1Y
1X
1V
0P
0M
0c
1`
1?
0B
0^
1Z
1k
0g
0h
0.
1(
0b
1a
0d
0C
1@
0A
0i
1j
0,
1*
00
1W
0Q
0O
09
0:
1<
1'
0/
0-
0_
1[
1=
0>
0+
1)
#192308
1&
1E
1N
1e
1d
1c
1b
1_
1S
1Q
1O
19
1:
1;
1>
1A
1B
1C
1D
12
10
1.
1,
1+
11
1/
1-
#200000
0"
0J
1\
0X
0Z
#214286
1#
1$
1H
1I
0\
0Y
1P
1^
0^
1Z
#227273
1%
1F
1\
1Y
0V
0R
0P
1M
1^
0Z
#230769
0&
0E
0N
1i
0j
0k
1f
1h
0d
0a
0`
0_
0S
0Q
0O
09
0:
0;
0>
0?
0@
0C
00
0*
0(
0+
01
0/
0-
1_
0[
0W
1S
1O
19
1;
0<
0=
1>
1+
0)
0'
11
1-
#269231
1&
1E
1N
1d
1a
1`
1[
1W
1Q
1:
1<
1=
1?
1@
1C
10
1*
1(
1)
1'
1/
#272727
0%
0F
0\
0Y
1V
1R
1P
0M
0^
1Z
#285714
0#
0$
0H
0I
1\
1Y
0P
0Z
#300000
1"
1J
0\
1X
1Z
#307692
0&
0E
0N
0i
1j
1k
0f
0h
0e
0d
0c
0b
0[
0W
0Q
0:
0<
0=
0A
0B
0C
0D
02
00
0.
0,
0)
0'
0/
0_
1[
1W
0S
0O
09
0;
1<
1=
0>
0+
1)
1'
01
0-
#318182
1%
1F
1]
0Y
0X
0V
1P
1M
1c
0`
0?
1B
1^
0Z
0k
1g
1h
1.
0(
1b
0a
1d
1C
0@
1A
1i
0j
1,
0*
10
0W
1Q
1O
19
1:
0<
0'
1/
1-
1_
0[
0=
1>
1+
0)
#333333
0!
0G
0]
1Y
1X
0U
0T
0^
1Z
1V
0b
1a
1`
1?
1@
0A
0i
1j
1k
0,
1*
1(
0_
1[
1W
1<
1=
0>
0+
1)
1'
#346154
1&
1E
1N
1e
1b
1_
1S
1;
1>
1A
1D
12
1,
1+
11
#357143
1#
1$
1H
1I
1U
0R
1K
0Z
0V
0M
#363636
0%
0F
1\
0X
1R
1^
#384615
0&
0E
0N
1i
0j
0k
0h
0e
0c
0a
0`
0_
0S
0;
0>
0?
0@
0B
0D
02
0.
0*
0(
0+
01
1_
0[
0W
0O
09
0<
0=
1>
1+
0)
0'
0-
#400000
0"
0J
1]
0\
0Y
0U
0K
0^
1Z
0b
1a
1@
0A
0i
1j
0,
1*
0_
1[
1=
0>
0+
1)
#409091
1%
1F
0]
1V
0R
0P
1M
1e
1c
1`
1?
1B
1D
1k
1f
0g
1h
12
1.
1(
0d
0C
00
1W
1S
0Q
1O
19
0:
1;
1<
1'
11
0/
1-
#423077
1&
1E
1N
1d
1b
1_
1Q
1:
1>
1A
1C
10
1,
1+
1/
#428571
0#
0$
0H
0I
1\
1Y
1R
1P
0Z
#454545
0%
0F
0\
0Y
0V
0P
0M
#461538
0&
0E
0N
0j
0k
0f
0h
0e
0d
0c
0b
0a
0`
0_
0Q
0:
0>
0?
0@
0A
0B
0C
0D
02
00
0.
0,
0*
0(
0+
0/
0[
0W
0S
0O
09
0;
0<
0=
0)
0'
01
0-
#500000
1!
1"
1#
1$
1%
1&
1G
1J
1H
1I
1F
1E
1N
1Y
1X
1L
1K
1P
0R
1Z
1V
1M
1e
1b
1a
1c
1`
1d
1_
1[
1W
1S
1Q
1O
19
1:
1;
1<
1=
1>
1C
1?
1B
1@
1A
1D
0Z
0M
12
1,
1*
1.
1(
10
1+
1)
1'
11
1/
1-
#538461
0&
0E
0N
1k
1f
1g
0c
0b
0a
0_
0[
0W
0S
0Q
0O
09
0:
0;
0<
0=
0>
0@
0A
0B
0.
0,
0*
0+
0)
0'
01
0/
0-
1W
1S
1Q
1:
1;
1<
1'
11
1/
#545454
0%
0F
0V
1R
1M
0e
1c
0`
0?
1B
0D
0k
0f
1h
02
1.
0(
0W
0S
1O
19
0;
0<
0'
01
1-
#571428
0#
0$
0H
0I
1U
1T
0P
0L
0K
1Z
1a
1@
1V
0g
0M
1j
1*
1`
0d
0c
0B
0C
1?
1k
0h
1(
00
0.
0Q
1[
1=
0:
0/
1)
1W
0O
09
1<
1'
0-
#576923
1&
1E
1N
1e
1d
1c
1b
1_
1S
1Q
1O
19
1:
1;
1>
1A
1B
1C
1D
12
10
1.
1,
1+
11
1/
1-
#590909
1%
1F
1]
0Y
0X
0V
1P
1M
1^
0Z
#600000
0"
0J
0]
1Y
1X
0^
1Z
#615384
0&
0E
0N
0k
1g
1h
0e
0b
0`
0_
0S
0Q
0O
09
0:
0;
0>
0?
0A
0D
02
0,
0(
0+
01
0/
0-
0W
1Q
1O
19
1:
0<
0'
1/
1-
#636363
0%
0F
1\
0X
1V
0P
0M
0c
1`
1?
0B
0Z
1k
0g
0h
0.
1(
0a
0d
0C
0@
0j
0*
00
1W
0Q
0O
09
0:
1<
1'
0/
0-
0[
0=
0)
#642857
1#
1$
1H
1I
0\
0Y
1P
1^
1b
1A
0^
1Z
1g
1i
1,
0b
1a
1d
1C
1@
0A
0i
1j
0,
1*
10
1Q
1_
1>
1:
1/
1+
0_
1[
1=
0>
0+
1)
#653846
1&
1E
1N
1e
1c
1b
1_
1S
1O
19
1;
1>
1A
1B
1D
12
1.
1,
1+
11
1-
#666666
0!
0G
1]
0U
0T
0V
#681818
1%
1F
0]
1V
0R
0P
1M
#692307
0&
0E
0N
1f
0g
1h
0d
0b
0_
0S
0O
09
0;
0>
0A
0C
00
0,
0+
01
0-
1S
0Q
1O
19
0:
1;
11
0/
1-
#700000
1"
1J
1Y
1X
1U
1P
1K
0Z
0V
1g
0M
0a
0`
1d
0c
0B
1C
0?
0@
0j
0k
0h
0*
0(
10
0.
1Q
1:
1/
0[
0W
0O
09
0<
0=
0)
0'
0-
#714285
0#
0$
0H
0I
0U
1R
0K
1Z
0e
1a
1@
0D
1V
0f
1M
1j
02
1*
1`
1c
1B
1?
1k
1h
1(
1.
0S
1[
1=
0;
01
1)
1W
1O
19
1<
1'
1-
#727272
0%
0F
0V
0P
0M
0c
0`
0?
0B
0k
0g
0h
0.
0(
0d
0C
00
0W
0Q
0O
09
0:
0<
0'
0/
0-
#730769
1&
1E
1N
1e
1d
1c
1b
1`
1_
1W
1S
1Q
1O
19
1:
1;
1<
1>
1?
1A
1B
1C
1D
12
10
1.
1,
1(
1+
1'
11
1/
1-
#769230
0&
0E
0N
0e
0d
0c
0b
0`
0_
0W
0S
0Q
0O
09
0:
0;
0<
0>
0?
0A
0B
0C
0D
02
00
0.
0,
0(
0+
0'
01
0/
0-
#772727
1%
1F
1V
1P
1M
1c
1`
1?
1B
1k
1g
1h
1.
1(
1d
1C
10
1W
1Q
1O
19
1:
1<
1'
1/
1-
#785714
1#
1$
1H
1I
1U
0R
1K
0Z
1e
0a
0@
1D
0V
1f
0M
0j
12
0*
0`
0c
0B
0?
0k
0h
0(
0.
1S
0[
0=
1;
11
0)
0W
0O
09
0<
0'
0-
#800000
0"
0J
0Y
0X
0U
0P
0K
1Z
1V
0g
1M
1a
1`
0d
1c
1B
0C
1?
1@
1j
1k
1h
1*
1(
00
1.
0Q
0:
0/
1[
1W
1O
19
1<
1=
1)
1'
1-
#807692
1&
1E
1N
1d
1b
1_
1Q
1:
1>
1A
1C
10
1,
1+
1/
#818181
0%
0F
1]
0V
1R
1P
0M
#833333
1!
1G
0]
1U
1T
1V
#846153
0&
0E
0N
0f
1g
0h
0e
0c
0b
0_
0Q
0:
0>
0A
0B
0D
02
0.
0,
0+
0/
0S
1Q
0O
09
1:
0;
01
1/
0-
#857142
0#
0$
0H
0I
1\
1Y
0P
0Z
0a
0@
0g
0j
0*
0d
0C
00
0Q
0[
0=
0:
0/
0)
#863636
1%
1F
0\
1X
0V
1P
1M
1c
0`
0?
1B
1Z
0k
1g
1h
1.
0(
1a
1d
1C
1@
1j
1*
10
0W
1Q
1O
19
1:
0<
0'
1/
1-
1[
1=
1)
#884615
1&
1E
1N
1e
1b
1`
1_
1W
1S
1;
1<
1>
1?
1A
1D
12
1,
1(
1+
1'
11
#900000
1"
1J
1]
0Y
0X
1^
0Z
#909090
0%
0F
0]
1Y
1X
1V
0P
0M
0^
1Z
#923076
0&
0E
0N
1k
0g
0h
0e
0d
0c
0b
0_
0W
0S
0;
0<
0>
0A
0B
0C
0D
02
00
0.
0,
0+
0'
01
1W
0Q
0O
09
0:
1<
1'
0/
0-
#928571
1#
1$
1H
1I
0U
0T
1P
1L
1K
0Z
0a
0@
0V
1g
1M
0j
0*
0`
1d
1c
1B
1C
0?
0k
1h
0(
10
1.
1Q
0[
0=
1:
1/
0)
0W
1O
19
0<
0'
1-
#954545
1%
1F
1V
0R
0M
1e
0c
1`
1?
0B
1D
1k
1f
0h
12
0.
1(
1W
1S
0O
09
1;
1<
1'
11
0-
#961538
1&
1E
1N
1c
1b
1a
1_
1[
1O
19
1=
1>
1@
1A
1B
1.
1,
1*
1+
1)
1-
#999999
0!
0#
0$
0%
0&
0G
0H
0I
0F
0E
0N
0L
0K
1R
0P
1Z
0V
1M
0e
0b
0`
0_
0[
0O
09
0=
0>
0?
0A
0D
0M
0f
0g
1j
0k
1h
02
0,
0(
0+
0)
0-
0c
0d
0C
0B
0h
0.
00
0S
0Q
1[
0W
1O
19
0<
1=
0:
0;
01
0/
1)
0'
1-
0O
09
0-
