lab4/lab4_encoder/simulation/qsim/lab4_encoder.msim.vcd
$comment
	File created using the following command:
		vcd file lab4_encoder.msim.vcd -direction
$end
$date
	Wed Nov 06 22:39:48 2024
$end
$version
	ModelSim Version 2020.1
$end
$timescale
	1ps
$end

$scope module lab4_encoder_block_vlg_vec_tst $end
$var reg 1 ! input1 $end
$var reg 1 " input2 $end
$var reg 1 # input3 $end
$var reg 1 $ input4 $end
$var reg 1 % input5 $end
$var reg 1 & input6 $end
$var reg 1 ' input7 $end
$var reg 1 ( input8 $end
$var reg 1 ) input9 $end
$var wire 1 * output1_1 $end
$var wire 1 + output1_2 $end
$var wire 1 , output1_3 $end
$var wire 1 - output1_4 $end
$var wire 1 . output1_5 $end
$var wire 1 / output2_1 $end
$var wire 1 0 output2_2 $end
$var wire 1 1 output2_3 $end
$var wire 1 2 output2_4 $end
$var wire 1 3 output2_5 $end

$scope module i1 $end
$var wire 1 4 gnd $end
$var wire 1 5 vcc $end
$var wire 1 6 unknown $end
$var tri1 1 7 devclrn $end
$var tri1 1 8 devpor $end
$var tri1 1 9 devoe $end
$var wire 1 : output1_1~output_o $end
$var wire 1 ; output1_2~output_o $end
$var wire 1 < output1_3~output_o $end
$var wire 1 = output1_4~output_o $end
$var wire 1 > output1_5~output_o $end
$var wire 1 ? output2_1~output_o $end
$var wire 1 @ output2_2~output_o $end
$var wire 1 A output2_3~output_o $end
$var wire 1 B output2_4~output_o $end
$var wire 1 C output2_5~output_o $end
$var wire 1 D input3~input_o $end
$var wire 1 E input5~input_o $end
$var wire 1 F input7~input_o $end
$var wire 1 G input8~input_o $end
$var wire 1 H input6~input_o $end
$var wire 1 I inst8|Y0~4_combout $end
$var wire 1 J input1~input_o $end
$var wire 1 K input4~input_o $end
$var wire 1 L input2~input_o $end
$var wire 1 M inst8|Y0~2_combout $end
$var wire 1 N inst8|Y0~5_combout $end
$var wire 1 O inst8|Y1~0_combout $end
$var wire 1 P inst8|Y1~1_combout $end
$var wire 1 Q inst8|Y1~2_combout $end
$var wire 1 R inst8|Y0~3_combout $end
$var wire 1 S inst8|Y2~0_combout $end
$var wire 1 T inst8|Y2~1_combout $end
$var wire 1 U input9~input_o $end
$var wire 1 V inst8|Y4~0_combout $end
$var wire 1 W inst8|Y3~0_combout $end
$var wire 1 X inst8|Y4~1_combout $end
$upscope $end
$upscope $end
$enddefinitions $end
#0
$dumpvars
0!
0"
0#
0$
0%
0&
0'
0(
0)
0*
0+
0,
0-
0.
0/
00
01
02
03
04
15
x6
17
18
19
0:
0;
0<
0=
0>
0?
0@
0A
0B
0C
0D
0E
0F
0G
0H
0I
0J
0K
0L
0M
0N
0O
1P
0Q
0R
0S
0T
0U
0V
0W
0X
$end
#26316
1)
1U
#29412
1'
1(
1F
1G
#33333
1&
1H
#38462
1%
1E
1S
#45455
1$
1K
#52631
0)
0U
#55556
1#
1D
0P
#58823
0'
0(
0F
0G
0S
1O
#66666
0&
0H
0O
1I
#71429
1"
1L
#76923
0%
0E
0I
#78947
1)
1U
#88235
1'
1(
1F
1G
#90909
0$
0K
1P
#99999
1&
1H
#100000
1!
1J
1R
1M
1Q
1;
1@
10
1+
1N
1:
1?
1/
1*
#105262
0)
0U
#111111
0#
0D
0R
0M
0N
0:
0?
0/
0*
#115385
1%
1E
1S
#117646
0'
0(
0F
0G
0S
1O
#131578
1)
1U
#133332
0&
0H
0O
1I
#136364
1$
1K
#142857
0"
0L
1M
0Q
0;
0@
00
0+
1N
1:
1?
1/
1*
#147058
1'
1(
1F
1G
#153846
0%
0E
0I
#157893
0)
0U
#166665
1&
1H
#166667
1#
1D
1R
0P
#176469
0'
0(
0F
0G
#181818
0$
0K
1P
#184209
1)
1U
#192308
1%
1E
1O
#199998
0&
0H
0O
1I
#200000
0!
0J
0R
0M
0N
0:
0?
0/
0*
#205881
1'
1(
1F
1G
#210524
0)
0U
#214286
1"
1L
#222222
0#
0D
#227273
1$
1K
#230769
0%
0E
0I
#233331
1&
1H
#235292
0'
0(
0F
0G
#236840
1)
1U
#263155
0)
0U
#264704
1'
1(
1F
1G
#266664
0&
0H
#269231
1%
1E
1I
#272727
0$
0K
#277778
1#
1D
#285714
0"
0L
#289471
1)
1U
#294115
0'
0(
0F
0G
#299997
1&
1H
1O
0I
#300000
1!
1J
1R
1M
1N
1:
1?
1/
1*
#307692
0%
0E
0O
#315786
0)
0U
#318182
1$
1K
0P
#323527
1'
1(
1F
1G
#333330
0&
0H
#333333
0#
0D
0R
1P
#342102
1)
1U
#346154
1%
1E
1I
#352938
0'
0(
0F
0G
#357143
1"
1L
0M
1Q
1;
1@
10
1+
0N
0:
0?
0/
0*
#363636
0$
0K
#366663
1&
1H
1O
0I
#368417
0)
0U
#382350
1'
1(
1F
1G
1S
0O
#384615
0%
0E
0S
#388889
1#
1D
1R
1M
1N
1:
1?
1/
1*
#394733
1)
1U
#399996
0&
0H
#400000
0!
0J
0R
0M
0Q
0;
0@
00
0+
0N
0:
0?
0/
0*
#409091
1$
1K
0P
#411761
0'
0(
0F
0G
#421048
0)
0U
#423077
1%
1E
1I
#428571
0"
0L
#433329
1&
1H
1O
0I
#441173
1'
1(
1F
1G
1S
0O
#444444
0#
0D
1P
#447364
1)
1U
#454545
0$
0K
#461538
0%
0E
0S
#466662
0&
0H
#470584
0'
0(
0F
0G
#473679
0)
0U
#499995
1&
1)
1H
1U
#499996
1'
1(
1F
1G
#500000
1!
1"
1#
1$
1%
1J
1L
1D
1K
1E
1R
0P
1S
1Q
1;
1@
1V
10
1+
0Q
0;
0@
00
0+
1X
1>
1C
13
1.
#526310
0)
0U
0X
1W
1=
1B
0>
0C
03
0.
12
1-
#529407
0'
0(
0F
0G
0S
1O
0V
1T
1Q
1;
1@
1<
1A
11
1,
10
1+
0W
0=
0B
02
0-
#533328
0&
0H
0O
1I
0Q
1N
1:
1?
0;
0@
00
0+
1/
1*
#538461
0%
0E
0I
0N
0:
0?
0/
0*
#545454
0$
0K
1P
1M
0T
0<
0A
01
0,
1Q
1N
1:
1?
1;
1@
10
1+
1/
1*
#552626
1)
1U
#555555
0#
0D
0R
0M
0N
0:
0?
0/
0*
#558819
1'
1(
1F
1G
#566661
1&
1H
#571428
0"
0L
1M
0Q
0;
0@
00
0+
1N
1:
1?
1/
1*
#576923
1%
1E
1S
#578941
0)
0U
#588230
0'
0(
0F
0G
0S
1O
#590909
1$
1K
#599994
0&
0H
0O
1I
#600000
0!
0J
0M
0N
0:
0?
0/
0*
#605257
1)
1U
#611111
1#
1D
0P
#615384
0%
0E
0I
#617642
1'
1(
1F
1G
#631572
0)
0U
#633327
1&
1H
#636363
0$
0K
1P
#642857
1"
1L
#647053
0'
0(
0F
0G
#653846
1%
1E
1O
#657888
1)
1U
#666660
0&
0H
0O
1I
#666666
0#
0D
#676465
1'
1(
1F
1G
#681818
1$
1K
#684203
0)
0U
#692307
0%
0E
0I
#699993
1&
1H
#700000
1!
1J
1Q
1;
1@
10
1+
#705876
0'
0(
0F
0G
#710519
1)
1U
#714285
0"
0L
1M
0Q
0;
0@
00
0+
1N
1:
1?
1/
1*
#722222
1#
1D
1R
0P
#727272
0$
0K
1P
#730769
1%
1E
1O
#733326
0&
0H
0O
1I
#735288
1'
1(
1F
1G
#736834
0)
0U
#763150
1)
1U
#764699
0'
0(
0F
0G
#766659
1&
1H
1O
0I
#769230
0%
0E
0O
#772727
1$
1K
0P
#777777
0#
0D
0R
1P
#785714
1"
1L
0M
1Q
1;
1@
10
1+
0N
0:
0?
0/
0*
#789465
0)
0U
#794111
1'
1(
1F
1G
#799992
0&
0H
#800000
0!
0J
0Q
0;
0@
00
0+
#807692
1%
1E
1I
#815781
1)
1U
#818181
0$
0K
#823522
0'
0(
0F
0G
#833325
1&
1H
1O
0I
#833333
1#
1D
#842096
0)
0U
#846153
0%
0E
0O
#852934
1'
1(
1F
1G
#857142
0"
0L
#863636
1$
1K
0P
#866658
0&
0H
#868412
1)
1U
#882345
0'
0(
0F
0G
#884615
1%
1E
1I
#888888
0#
0D
1P
#894727
0)
0U
#899991
1&
1H
1O
0I
#900000
1!
1J
1M
1N
1:
1?
1/
1*
#909090
0$
0K
#911757
1'
1(
1F
1G
1S
0O
#921043
1)
1U
#923076
0%
0E
0S
#928571
1"
1L
0M
1Q
1;
1@
10
1+
0N
0:
0?
0/
0*
#933324
0&
0H
#941168
0'
0(
0F
0G
#944444
1#
1D
1R
1M
1N
1:
1?
1/
1*
#947358
0)
0U
#954545
1$
1K
0P
0M
1T
1<
1A
11
1,
0Q
0N
0:
0?
0;
0@
00
0+
0/
0*
#961538
1%
1E
1I
1N
1:
1?
1/
1*
#966657
1&
1H
1O
0I
1Q
0N
0:
0?
1;
1@
10
1+
0/
0*
#970580
1'
1(
1F
1G
1S
0O
1V
0T
0Q
0;
0@
0<
0A
01
0,
00
0+
1W
1=
1B
12
1-
#973674
1)
1U
1X
0W
0=
0B
1>
1C
13
1.
02
0-
#999989
0)
0U
0X
1W
1=
1B
0>
0C
03
0.
12
1-
#999990
0&
0H
0S
1I
0V
1T
1N
1:
1?
1<
1A
11
1,
1/
1*
0W
0=
0B
02
0-
#999991
0'
0(
0F
0G
#999999
0"
0#
0$
0%
0L
0D
0K
0E
1M
0R
1P
0I
0T
0N
0:
0?
0<
0A
01
0,
0/
0*
1N
1:
1?
1/
1*
