lab6/lab6_digital_comparator/simulation/qsim/lab6_digital_comparator.msim.vcd
$comment
	File created using the following command:
		vcd file lab6_digital_comparator.msim.vcd -direction
$end
$date
	Thu Nov 28 19:45:20 2024
$end
$version
	ModelSim Version 2020.1
$end
$timescale
	1ps
$end

$scope module lab6_digital_comparator_vlg_vec_tst $end
$var reg 1 ! inA0 $end
$var reg 1 " inA1 $end
$var reg 1 # InA2 $end
$var reg 1 $ InA3 $end
$var reg 1 % inB0 $end
$var reg 1 & inB1 $end
$var reg 1 ' InB2 $end
$var reg 1 ( InB3 $end
$var reg 1 ) inEq $end
$var reg 1 * inGT $end
$var reg 1 + inLT $end
$var wire 1 , outEQ_Verilog $end
$var wire 1 - outEQ_VHDL $end
$var wire 1 . outGT_Verilog $end
$var wire 1 / outGT_VHDL $end
$var wire 1 0 outLT_Verilog $end
$var wire 1 1 outLT_VHDL $end

$scope module i1 $end
$var wire 1 2 gnd $end
$var wire 1 3 vcc $end
$var wire 1 4 unknown $end
$var tri1 1 5 devclrn $end
$var tri1 1 6 devpor $end
$var tri1 1 7 devoe $end
$var wire 1 8 outGT_VHDL~output_o $end
$var wire 1 9 outLT_VHDL~output_o $end
$var wire 1 : outEQ_VHDL~output_o $end
$var wire 1 ; outGT_Verilog~output_o $end
$var wire 1 < outLT_Verilog~output_o $end
$var wire 1 = outEQ_Verilog~output_o $end
$var wire 1 > inA1~input_o $end
$var wire 1 ? inB1~input_o $end
$var wire 1 @ inA0~input_o $end
$var wire 1 A inB0~input_o $end
$var wire 1 B inst|EQ_out~1_combout $end
$var wire 1 C InB3~input_o $end
$var wire 1 D InB2~input_o $end
$var wire 1 E InA2~input_o $end
$var wire 1 F InA3~input_o $end
$var wire 1 G inst|LessThan0~0_combout $end
$var wire 1 H inst|LessThan0~1_combout $end
$var wire 1 I inst|EQ_out~0_combout $end
$var wire 1 J inGT~input_o $end
$var wire 1 K inEq~input_o $end
$var wire 1 L inst|process_0~0_combout $end
$var wire 1 M inst|process_0~1_combout $end
$var wire 1 N inst|GT_out~2_combout $end
$var wire 1 O inLT~input_o $end
$var wire 1 P inst|EQ_out~2_combout $end
$var wire 1 Q inst|LT_out~0_combout $end
$var wire 1 R inst|LessThan1~1_combout $end
$var wire 1 S inst|LessThan1~0_combout $end
$var wire 1 T inst|LT_out~1_combout $end
$upscope $end
$upscope $end
$enddefinitions $end
#0
$dumpvars
0!
0"
0#
0$
0%
0&
0'
0(
0)
0*
0+
0,
0-
0.
0/
00
01
02
13
x4
15
16
17
08
09
0:
0;
0<
0=
0>
0?
0@
0A
1B
0C
0D
0E
0F
0G
0H
1I
0J
0K
0L
0M
0N
0O
0P
0Q
0R
0S
0T
$end
#29412
1+
1O
1Q
#31250
1*
1J
1L
#33333
1)
1K
1P
1:
1=
0Q
1,
1-
#35714
1(
1C
1S
0I
0P
0:
0=
1Q
0,
0-
1T
19
1<
10
11
#38462
1'
1D
#41667
1&
1?
1R
0B
#45455
1%
1A
#50000
1$
1F
#55556
1#
1E
0S
1I
#58823
0+
0O
#62500
0*
0J
#66666
0)
0K
0Q
0L
0T
09
0<
00
01
#71428
0(
0C
0I
1G
#71429
1"
1>
#76923
0'
0D
#83333
0&
0?
0R
1H
#88235
1+
1O
1Q
#90909
0%
0A
#93750
1*
1J
1L
1M
0Q
1N
18
1;
1.
1/
#99999
1)
1K
#100000
1!
0$
1@
0F
#107142
1(
1C
1S
0G
0M
1Q
0N
08
0;
0.
0/
1T
19
1<
10
11
#111111
0#
0E
#115385
1'
1D
#117646
0+
0O
#125000
1&
0*
1?
0J
#133332
0)
0K
0Q
0L
0T
09
0<
00
01
#136364
1%
1A
0H
1B
#142856
0(
0C
#142857
0"
0>
1R
0B
#147058
1+
1O
1Q
1T
19
1<
10
11
#150000
1$
1F
0S
1G
0T
09
0<
00
01
#153846
0'
0D
#156250
1*
1J
1L
1M
0Q
1N
18
1;
1.
1/
#166665
1)
1K
#166666
0&
0?
0R
1B
#166667
1#
1E
#176469
0+
0O
#178570
1(
1C
#181818
0%
0A
1H
0B
#187500
0*
0J
#192308
1'
1D
1I
0G
#199998
0)
0K
0L
0M
0N
08
0;
0.
0/
#200000
0!
0$
0@
0F
0H
1B
1S
0I
#205881
1+
1O
1Q
1T
19
1<
10
11
#208333
1&
1?
1R
0B
#214284
0(
0C
0S
1I
#214286
1"
1>
0R
1B
0T
09
0<
00
01
#218750
1*
1J
1L
#222222
0#
0E
1S
0I
1T
19
1<
10
11
#227273
1%
1A
1R
0B
#230769
0'
0D
0S
1I
#233331
1)
1K
#235292
0+
0O
#249998
1(
1C
1S
0I
#249999
0&
0?
0R
1H
#250000
1$
0*
1F
0J
0S
1I
1M
0T
09
0<
0Q
00
01
1N
18
1;
1.
1/
#264704
1+
1O
#266664
0)
0K
0L
0M
1Q
0N
08
0;
0.
0/
#269231
1'
1D
1S
0I
1T
19
1<
10
11
#272727
0%
0A
#277778
1#
1E
0S
1I
0T
09
0<
00
01
#281250
1*
1J
1L
1M
0Q
1N
18
1;
1.
1/
#285712
0(
0C
0I
1G
#285714
0"
0>
0H
1B
#291666
1&
1?
1R
0B
#294115
0+
0O
#299997
1)
1K
#300000
1!
0$
1@
0F
1I
0G
0M
1Q
0N
08
0;
0.
0/
1T
19
1<
10
11
#307692
0'
0D
0I
1G
1M
0T
09
0<
0Q
00
01
1N
18
1;
1.
1/
#312500
0*
0J
#318182
1%
1A
#321426
1(
1C
1S
0G
0M
1Q
0N
08
0;
0.
0/
1T
19
1<
10
11
#323527
1+
1O
#333330
0)
0K
0L
#333332
0&
0?
0R
1B
#333333
0#
0E
#343750
1*
1J
1L
#346154
1'
1D
#350000
1$
1F
#352938
0+
0O
0Q
0T
09
0<
00
01
#357140
0(
0C
0S
1G
1M
1N
18
1;
1.
1/
#357143
1"
1>
1H
0B
#363636
0%
0A
#366663
1)
1K
#374999
1&
1?
#375000
0*
0J
#382350
1+
1O
#384615
0'
0D
#388889
1#
1E
#392854
1(
1C
#399996
0)
0K
0L
0M
1Q
0N
08
0;
0.
0/
#400000
0!
0$
0@
0F
0H
1B
1S
0G
1T
19
1<
10
11
#406250
1*
1J
1L
#409091
1%
1A
1R
0B
#411761
0+
0O
0Q
0T
09
0<
00
01
#416665
0&
0?
0R
1H
#423077
1'
1D
#428568
0(
0C
0S
1I
1M
1N
18
1;
1.
1/
#428571
0"
0>
1R
0H
0M
0N
08
0;
0.
0/
#433329
1)
1K
1Q
1T
19
1<
10
11
#437500
0*
0J
#441173
1+
1O
#444444
0#
0E
1S
0I
#450000
1$
1F
0S
1G
1M
0T
09
0<
0Q
00
01
1N
18
1;
1.
1/
#454545
0%
0A
0R
1B
#458332
1&
1?
1R
0B
#461538
0'
0D
#464282
1(
1C
1I
0G
0M
1Q
0N
08
0;
0.
0/
1T
19
1<
10
11
#466662
0)
0K
0L
#468750
1*
1J
1L
#470584
0+
0O
0Q
0T
09
0<
00
01
#499995
1)
1K
1Q
1T
19
1<
10
11
#499996
0(
1+
0C
1O
0I
1G
1M
0T
09
0<
0Q
00
01
1N
18
1;
1.
1/
#499998
0&
0?
0R
1B
#500000
1!
1"
1#
0$
1%
1'
0*
1@
1>
1E
0F
1A
1D
0J
1H
0B
1I
0G
#529407
0+
0O
#531250
1*
1J
#533328
0)
0K
#535710
1(
1C
1S
0I
0M
0N
08
0;
0.
0/
#538461
0'
0D
#541665
1&
1?
0H
1B
#545454
0%
0A
1H
0B
#550000
1$
1F
0S
1G
1M
1N
18
1;
1.
1/
#555555
0#
0E
1I
0G
#558819
1+
1O
#562500
0*
0J
0L
0M
1Q
0N
08
0;
0.
0/
#566661
1)
1K
1L
1M
0Q
1N
18
1;
1.
1/
#571424
0(
0C
0I
1G
#571428
0"
0>
1R
0H
#576923
1'
1D
#583331
0&
0?
0R
1H
#588230
0+
0O
#590909
1%
1A
0H
1B
#593750
1*
1J
#599994
0)
0K
#600000
0!
0$
0@
0F
1R
0B
1S
0G
0M
0N
08
0;
0.
0/
#607138
1(
1C
#611111
1#
1E
#615384
0'
0D
#617642
1+
1O
1Q
1T
19
1<
10
11
#624998
1&
1?
#625000
0*
0J
0L
#633327
1)
1K
1L
#636363
0%
0A
#642852
0(
0C
0S
1G
1M
0T
09
0<
0Q
00
01
1N
18
1;
1.
1/
#642857
1"
1>
0R
1B
#647053
0+
0O
#650000
1$
1F
#653846
1'
1D
#656250
1*
1J
#666660
0)
0K
#666664
0&
0?
1H
0B
#666666
0#
0E
#676465
1+
1O
#678566
1(
1C
1S
0G
0M
1Q
0N
08
0;
0.
0/
1T
19
1<
10
11
#681818
1%
1A
#687500
0*
0J
0L
#692307
0'
0D
0S
1I
0T
09
0<
00
01
#699993
1)
1K
1L
1M
0Q
1N
18
1;
1.
1/
#700000
1!
0$
1@
0F
1S
0I
0M
1Q
0N
08
0;
0.
0/
1T
19
1<
10
11
#705876
0+
0O
#708331
1&
1?
0H
1B
#714280
0(
0C
0S
1I
0T
1P
1:
1=
09
0<
0Q
00
01
1,
1-
#714285
0"
0>
1R
0B
0P
0:
0=
1Q
0,
0-
1T
19
1<
10
11
#718750
1*
1J
#722222
1#
1E
0I
1G
1M
0T
09
0<
0Q
00
01
1N
18
1;
1.
1/
#727272
0%
0A
#730769
1'
1D
1I
0G
0M
1Q
0N
08
0;
0.
0/
1T
19
1<
10
11
#733326
0)
0K
0Q
0T
09
0<
00
01
#735288
1+
1O
1Q
1T
19
1<
10
11
#749994
1(
1C
1S
0I
#749997
0&
0?
0R
1H
#750000
1$
0*
1F
0J
0S
1I
0L
0T
09
0<
00
01
#764699
0+
0O
0Q
#766659
1)
1K
1Q
1L
1M
0Q
1N
18
1;
1.
1/
#769230
0'
0D
0I
1G
#772727
1%
1A
0H
1B
#777777
0#
0E
1I
0G
0M
1P
0N
08
0;
1:
1=
1,
1-
0.
0/
#781250
1*
1J
#785708
0(
0C
0I
1G
1M
0P
0:
0=
0,
0-
1N
18
1;
1.
1/
#785714
1"
1>
1H
0B
#791664
1&
1?
0H
1B
#794111
1+
1O
#799992
0)
0K
#800000
0!
0$
0@
0F
1R
0B
1I
0G
0M
1Q
0N
08
0;
0.
0/
1T
19
1<
10
11
#807692
1'
1D
1S
0I
#812500
0*
0J
0L
#818181
0%
0A
0R
1B
#821422
1(
1C
#823522
0+
0O
0Q
0T
09
0<
00
01
#833325
1)
1K
1Q
1L
1T
19
1<
10
11
#833330
0&
0?
1H
0B
#833333
1#
1E
#843750
1*
1J
#846153
0'
0D
#850000
1$
1F
0S
1G
1M
0T
09
0<
0Q
00
01
1N
18
1;
1.
1/
#852934
1+
1O
#857136
0(
0C
#857142
0"
0>
0H
1B
#863636
1%
1A
1R
0B
#866658
0)
0K
#874997
1&
1?
#875000
0*
0J
0L
0M
1Q
0N
08
0;
0.
0/
#882345
0+
0O
0Q
#884615
1'
1D
#888888
0#
0E
#892850
1(
1C
1S
0G
#899991
1)
1K
1Q
1L
1T
19
1<
10
11
#900000
1!
0$
1@
0F
#906250
1*
1J
#909090
0%
0A
#911757
1+
1O
#916663
0&
0?
0R
1H
#923076
0'
0D
#928564
0(
0C
0S
1I
1M
0T
09
0<
0Q
00
01
1N
18
1;
1.
1/
#928571
1"
1>
#933324
0)
0K
#937500
0*
0J
0L
0M
1Q
0N
08
0;
0.
0/
#941168
0+
0O
0Q
#944444
1#
1E
0I
1G
#950000
1$
1F
#954545
1%
1A
#958330
1&
1?
0H
1B
#961538
1'
1D
#964278
1(
1C
1I
0G
#966657
1)
1K
1Q
1L
1P
1:
1=
0Q
1,
1-
#968750
1*
1J
#970580
1+
1O
#999990
0)
0K
0P
0:
0=
1Q
0,
0-
#999991
0+
0O
0Q
#999992
0(
0C
0I
1G
1M
1N
18
1;
1.
1/
#999996
0&
0?
1H
0B
#999999
0"
0#
0%
0'
0>
0E
0A
0D
