lab5/lab5_multiplexer/simulation/qsim/lab5_multiplexer.msim.vcd
$comment
	File created using the following command:
		vcd file lab5_multiplexer.msim.vcd -direction
$end
$date
	Sun Nov 10 20:56:48 2024
$end
$version
	ModelSim Version 2020.1
$end
$timescale
	1ps
$end

$scope module lab5_multiplexer_vlg_vec_tst $end
$var reg 1 ! input0 $end
$var reg 1 " input1 $end
$var reg 1 # input2 $end
$var reg 1 $ input3 $end
$var reg 1 % input4 $end
$var reg 1 & input5 $end
$var reg 1 ' input6 $end
$var reg 1 ( input7 $end
$var reg 1 ) inputEZ $end
$var reg 1 * select1 $end
$var reg 1 + select2 $end
$var reg 1 , select4 $end
$var wire 1 - output1_1 $end
$var wire 1 . output1_2 $end
$var wire 1 / output2_1 $end
$var wire 1 0 output2_2 $end

$scope module i1 $end
$var wire 1 1 gnd $end
$var wire 1 2 vcc $end
$var wire 1 3 unknown $end
$var tri1 1 4 devclrn $end
$var tri1 1 5 devpor $end
$var tri1 1 6 devoe $end
$var wire 1 7 output1_1~output_o $end
$var wire 1 8 output2_1~output_o $end
$var wire 1 9 output1_2~output_o $end
$var wire 1 : output2_2~output_o $end
$var wire 1 ; select4~input_o $end
$var wire 1 < input4~input_o $end
$var wire 1 = select2~input_o $end
$var wire 1 > input6~input_o $end
$var wire 1 ? inst|Mux0~0_combout $end
$var wire 1 @ input5~input_o $end
$var wire 1 A input7~input_o $end
$var wire 1 B inst|Mux0~1_combout $end
$var wire 1 C select1~input_o $end
$var wire 1 D input0~input_o $end
$var wire 1 E input1~input_o $end
$var wire 1 F inst|Mux0~2_combout $end
$var wire 1 G input3~input_o $end
$var wire 1 H input2~input_o $end
$var wire 1 I inst|Mux0~3_combout $end
$var wire 1 J inst|Mux0~4_combout $end
$var wire 1 K inputEZ~input_o $end
$upscope $end
$upscope $end
$enddefinitions $end
#0
$dumpvars
0!
0"
0#
0$
0%
0&
0'
0(
0)
0*
0+
0,
0-
1.
0/
10
01
12
x3
14
15
16
07
08
19
1:
0;
0<
0=
0>
0?
0@
0A
0B
0C
0D
0E
0F
0G
0H
0I
0J
0K
$end
#26316
1(
1A
#29412
1'
1>
#33333
1&
1,
1@
1;
1B
#38462
1%
1<
#45455
1$
1G
#50000
1+
1=
1F
1?
1I
1J
0:
09
17
18
1/
1-
0.
00
#52631
0(
0A
0B
#55556
1#
1H
#58823
0'
0>
#66666
0&
0,
0@
0;
1B
0F
0?
0B
#71429
1"
1E
#76923
0%
0<
#78947
1(
1A
#88235
1'
1>
1?
1B
#90909
0$
0G
#99999
1&
1,
1@
1;
1F
0I
0J
1:
19
07
08
0/
0-
1.
10
#100000
1!
1*
0+
1D
1C
0=
1I
0?
1J
0:
09
17
18
1/
1-
0.
00
#105262
0(
0A
#111111
0#
0H
#115385
1%
1<
#117646
0'
0>
#131578
1(
1A
#133332
0&
0,
0@
0;
0B
1?
1B
0J
1:
19
07
08
0/
0-
1.
10
1J
0:
09
17
18
1/
1-
0.
00
#136364
1$
1G
#142857
0"
0E
#147058
1'
1>
#150000
1+
1=
0F
0I
#153846
0%
0<
#157893
0(
0A
#166665
1&
1,
1@
1;
0B
1F
1I
0J
1:
19
07
08
0/
0-
1.
10
#166667
1)
1#
1K
1H
z:
z9
z8
z7
z-
z/
z.
z0
#176469
0'
0>
#181818
0$
0G
0I
#184209
1(
1A
1B
1J
#192308
1%
1<
#199998
0&
0,
0@
0;
0F
0?
1I
0B
0J
#200000
0!
0*
0+
0D
0C
0=
0I
1?
1J
1B
0J
#205881
1'
1>
#210524
0(
0A
#214286
1"
1E
#222222
0#
0H
#227273
1$
1G
#230769
0%
0<
0?
0B
#233331
1&
1,
1@
1;
1B
1F
1I
1J
#235292
0'
0>
#236840
1(
1A
#250000
1+
1=
1?
#263155
0(
0A
0B
#264704
1'
1>
#266664
0&
0,
0@
0;
1B
0F
0I
0J
#269231
1%
1<
#272727
0$
0G
#277778
1#
1H
1I
1J
#285714
0"
0E
#289471
1(
1A
#294115
0'
0>
0?
0B
#299997
1&
1,
1@
1;
1B
1F
1?
0I
0J
#300000
1!
1*
0+
1D
1C
0=
0F
1I
0?
1J
0I
#307692
0%
0<
#315786
0(
0A
#318182
1$
1G
#323527
1'
1>
#333330
0&
0,
0@
0;
0B
1F
1I
0J
#333333
0)
0#
0K
0H
1:
19
08
07
0-
0/
1.
10
#342102
1(
1A
#346154
1%
1<
1?
1B
1J
0:
09
17
18
1/
1-
0.
00
#350000
1+
1=
0F
0I
#352938
0'
0>
0?
0B
0J
1:
19
07
08
0/
0-
1.
10
#357143
1"
1E
#363636
0$
0G
#366663
1&
1,
1@
1;
1B
1F
1?
1J
0:
09
17
18
1/
1-
0.
00
#368417
0(
0A
0B
0J
1:
19
07
08
0/
0-
1.
10
#382350
1'
1>
#384615
0%
0<
#388889
1#
1H
#394733
1(
1A
1B
1J
0:
09
17
18
1/
1-
0.
00
#399996
0&
0,
0@
0;
0F
1I
#400000
0!
0*
0+
0D
0C
0=
0I
0?
0B
0J
1:
19
07
08
0/
0-
1.
10
#409091
1$
1G
#411761
0'
0>
#421048
0(
0A
#423077
1%
1<
1?
1B
#428571
0"
0E
#433329
1&
1,
1@
1;
0B
0?
1B
#441173
1'
1>
#444444
0#
0H
#447364
1(
1A
#450000
1+
1=
1F
1?
1I
1J
0:
09
17
18
1/
1-
0.
00
#454545
0$
0G
0I
0J
1:
19
07
08
0/
0-
1.
10
#461538
0%
0<
#466662
0&
0,
0@
0;
0F
#470584
0'
0>
0?
0B
#473679
0(
0A
#499995
1&
1,
1(
1@
1;
1A
1B
1F
1?
#499996
1'
1>
#500000
1)
1!
1*
1"
1#
0+
1$
1%
1K
1D
1C
1E
1H
0=
1G
1<
z:
z9
z8
z7
1I
0?
z-
z/
z.
z0
1J
#526310
0(
0A
#529407
0'
0>
#533328
0&
0,
0@
0;
0B
1?
1B
0J
1J
#538461
0%
0<
0?
0B
0J
#545454
0$
0G
#550000
1+
1=
0I
0F
1I
#552626
1(
1A
#555555
0#
0H
0I
#558819
1'
1>
1?
1B
1J
#566661
1&
1,
1@
1;
1F
#571428
0"
0E
#576923
1%
1<
#578941
0(
0A
0B
0J
#588230
0'
0>
#590909
1$
1G
1I
#599994
0&
0,
0@
0;
1B
0F
0?
0I
0B
1J
0J
#600000
0!
0*
0+
0D
0C
0=
1?
1B
#605257
1(
1A
#611111
1#
1H
#615384
0%
0<
0?
0B
#617642
1'
1>
#631572
0(
0A
#633327
1&
1,
1@
1;
1B
#636363
0$
0G
#642857
1"
1E
1F
1I
1J
#647053
0'
0>
#650000
1+
1=
0I
1?
0B
0J
#653846
1%
1<
#657888
1(
1A
1B
#666660
0&
0,
0@
0;
0F
0?
1I
0B
1J
#666666
0)
0#
0K
0H
0:
09
18
17
0I
1-
1/
0.
00
0J
1:
19
07
08
0/
0-
1.
10
#676465
1'
1>
1?
1B
#681818
1$
1G
#684203
0(
0A
#692307
0%
0<
#699993
1&
1,
1@
1;
0B
1F
1I
1J
0:
09
17
18
1/
1-
0.
00
#700000
1!
1*
0+
1D
1C
0=
0?
0J
1:
19
07
08
1B
0/
0-
1.
10
1J
0:
09
17
18
1/
1-
0.
00
#705876
0'
0>
#710519
1(
1A
#714285
0"
0E
0F
0I
#722222
1#
1H
#727272
0$
0G
#730769
1%
1<
#733326
0&
0,
0@
0;
0B
1F
1?
1I
1B
0J
1:
19
07
08
0/
0-
1.
10
1J
0:
09
17
18
1/
1-
0.
00
#735288
1'
1>
#736834
0(
0A
#750000
1+
1=
0I
0F
1I
#763150
1(
1A
#764699
0'
0>
0?
0B
0J
1:
19
07
08
0/
0-
1.
10
#766659
1&
1,
1@
1;
1B
1F
1?
0I
1J
0:
09
17
18
1/
1-
0.
00
#769230
0%
0<
#772727
1$
1G
1I
#777777
0#
0H
#785714
1"
1E
#789465
0(
0A
0B
0J
1:
19
07
08
0/
0-
1.
10
#794111
1'
1>
#799992
0&
0,
0@
0;
1B
0F
0I
1J
0:
09
17
18
1/
1-
0.
00
#800000
0!
0*
0+
0D
0C
0=
0?
0J
1:
19
07
08
0B
0/
0-
1.
10
#807692
1%
1<
1?
1B
#815781
1(
1A
#818181
0$
0G
#823522
0'
0>
#833325
1&
1,
1@
1;
1F
0?
1I
1J
0:
09
17
18
1/
1-
0.
00
#833333
1)
1#
1K
1H
z:
z9
z8
z7
z-
z/
z.
z0
#842096
0(
0A
#846153
0%
0<
#850000
1+
1=
0I
1?
0B
0J
#852934
1'
1>
#857142
0"
0E
#863636
1$
1G
1I
1J
#866658
0&
0,
0@
0;
1B
0F
#868412
1(
1A
#882345
0'
0>
0?
0B
#884615
1%
1<
#888888
0#
0H
0I
0J
#894727
0(
0A
#899991
1&
1,
1@
1;
1B
1F
1?
1I
0B
1J
#900000
1!
1*
0+
1D
1C
0=
0F
0?
0J
0I
1B
1J
#909090
0$
0G
#911757
1'
1>
#921043
1(
1A
#923076
0%
0<
#928571
1"
1E
1F
1I
#933324
0&
0,
0@
0;
0B
0J
#941168
0'
0>
#944444
1#
1H
#947358
0(
0A
#950000
1+
1=
0I
0F
1I
#954545
1$
1G
#961538
1%
1<
#966657
1&
1,
1@
1;
1B
1F
1?
0B
1J
0J
#970580
1'
1>
#973674
1(
1A
1B
1J
#999989
0(
0A
0B
0J
#999990
0&
0,
0@
0;
1B
0F
1J
#999991
0'
0>
0?
0B
0J
#999999
0)
0"
0#
0$
0%
0K
0E
0H
0G
0<
1:
19
08
07
0I
0-
0/
1.
10
