lab2/lab2_ComplexLogicalFunctions/simulation/qsim/lab2_ComplexLogicalFunctions.msim.vcd
$comment
	File created using the following command:
		vcd file lab2_ComplexLogicalFunctions.msim.vcd -direction
$end
$date
	Sat Oct 26 18:13:57 2024
$end
$version
	ModelSim Version 2020.1
$end
$timescale
	1ps
$end

$scope module lab2_ComplexLogicalFunctions_vlg_vec_tst $end
$var reg 1 ! pin_name1 $end
$var reg 1 " pin_name2 $end
$var reg 1 # pin_name3 $end
$var reg 1 $ pin_name4 $end
$var reg 1 % pin_name5 $end
$var reg 1 & pin_name6 $end
$var reg 1 ' pin_name7 $end
$var reg 1 ( pin_name8 $end
$var wire 1 ) pin_name9 $end
$var wire 1 * pin_name10 $end

$scope module i1 $end
$var wire 1 + gnd $end
$var wire 1 , vcc $end
$var wire 1 - unknown $end
$var tri1 1 . devclrn $end
$var tri1 1 / devpor $end
$var tri1 1 0 devoe $end
$var wire 1 1 pin_name9~output_o $end
$var wire 1 2 pin_name10~output_o $end
$var wire 1 3 pin_name1~input_o $end
$var wire 1 4 pin_name4~input_o $end
$var wire 1 5 pin_name3~input_o $end
$var wire 1 6 pin_name2~input_o $end
$var wire 1 7 inst|y~0_combout $end
$var wire 1 8 pin_name7~input_o $end
$var wire 1 9 pin_name8~input_o $end
$var wire 1 : pin_name6~input_o $end
$var wire 1 ; pin_name5~input_o $end
$var wire 1 < inst|y~1_combout $end
$var wire 1 = inst|y~2_combout $end
$upscope $end
$upscope $end
$enddefinitions $end
#0
$dumpvars
0!
0"
0#
0$
0%
0&
0'
0(
1)
1*
0+
1,
x-
1.
1/
10
11
12
03
04
05
06
07
08
09
0:
0;
0<
0=
$end
#62500
1(
19
#71429
1'
18
#83333
1&
1:
#100000
1%
1;
1<
1=
02
01
0)
0*
#125000
1$
0(
14
09
0<
0=
12
11
1)
1*
#142857
0'
08
#166666
0&
0:
#166667
1#
15
#187500
1(
19
#200000
0%
0;
#214286
1'
18
#249999
1&
1:
#250000
1"
0$
0(
16
04
09
#285714
0'
08
#300000
1%
1;
#312500
1(
19
#333332
0&
0:
#333333
0#
05
#357143
1'
18
#375000
1$
0(
14
09
#400000
0%
0;
#416665
1&
1:
#428571
0'
08
#437500
1(
19
#499998
0&
0:
#500000
1!
0"
1#
0$
1%
1'
0(
13
06
15
04
1;
18
09
#562500
1(
19
#571428
0'
08
#583331
1&
1:
#600000
0%
0;
#625000
1$
0(
14
09
#642857
1'
18
#666664
0&
0:
#666666
0#
05
#687500
1(
19
#700000
1%
1;
#714285
0'
08
#749997
1&
1:
#750000
1"
0$
0(
16
04
09
#785714
1'
18
#800000
0%
0;
#812500
1(
19
#833330
0&
0:
#833333
1#
15
#857142
0'
08
#875000
1$
0(
14
09
17
1=
02
01
0)
0*
#900000
1%
1;
#916663
1&
1:
#928571
1'
18
#937500
1(
19
1<
#999996
0&
0:
0<
#999999
0#
0'
05
08
07
0=
12
11
1)
1*
