lab3/lab3_decoder/simulation/qsim/lab3_decoder.msim.vcd
$comment
	File created using the following command:
		vcd file lab3_decoder.msim.vcd -direction
$end
$date
	Thu Oct 31 07:58:15 2024
$end
$version
	ModelSim Version 2020.1
$end
$timescale
	1ps
$end

$scope module Schem1_1_vlg_vec_tst $end
$var reg 1 ! check1 $end
$var reg 1 " check2 $end
$var reg 1 # check3 $end
$var reg 1 $ input1 $end
$var reg 1 % input2 $end
$var reg 1 & input4 $end
$var wire 1 ' out0 $end
$var wire 1 ( out0_2 $end
$var wire 1 ) out1 $end
$var wire 1 * out1_2 $end
$var wire 1 + out2 $end
$var wire 1 , out2_2 $end
$var wire 1 - out3 $end
$var wire 1 . out3_2 $end
$var wire 1 / out4 $end
$var wire 1 0 out4_2 $end
$var wire 1 1 out5 $end
$var wire 1 2 out5_2 $end
$var wire 1 3 out6 $end
$var wire 1 4 out6_2 $end
$var wire 1 5 out7 $end
$var wire 1 6 out7_2 $end

$scope module i1 $end
$var wire 1 7 gnd $end
$var wire 1 8 vcc $end
$var wire 1 9 unknown $end
$var tri1 1 : devclrn $end
$var tri1 1 ; devpor $end
$var tri1 1 < devoe $end
$var wire 1 = out0~output_o $end
$var wire 1 > out1~output_o $end
$var wire 1 ? out2~output_o $end
$var wire 1 @ out3~output_o $end
$var wire 1 A out4~output_o $end
$var wire 1 B out5~output_o $end
$var wire 1 C out6~output_o $end
$var wire 1 D out7~output_o $end
$var wire 1 E out0_2~output_o $end
$var wire 1 F out1_2~output_o $end
$var wire 1 G out2_2~output_o $end
$var wire 1 H out3_2~output_o $end
$var wire 1 I out4_2~output_o $end
$var wire 1 J out5_2~output_o $end
$var wire 1 K out6_2~output_o $end
$var wire 1 L out7_2~output_o $end
$var wire 1 M input4~input_o $end
$var wire 1 N input2~input_o $end
$var wire 1 O check2~input_o $end
$var wire 1 P check1~input_o $end
$var wire 1 Q input1~input_o $end
$var wire 1 R check3~input_o $end
$var wire 1 S inst|y0~0_combout $end
$var wire 1 T inst|y0~1_combout $end
$var wire 1 U inst|y1~0_combout $end
$var wire 1 V inst|y1~1_combout $end
$var wire 1 W inst|y2~0_combout $end
$var wire 1 X inst|y3~0_combout $end
$var wire 1 Y inst|y4~0_combout $end
$var wire 1 Z inst|y5~0_combout $end
$var wire 1 [ inst|y6~0_combout $end
$var wire 1 \ inst|y7~0_combout $end
$upscope $end
$upscope $end
$enddefinitions $end
#0
$dumpvars
0!
0"
0#
0$
0%
0&
0'
0(
0)
0*
0+
0,
0-
0.
0/
00
01
02
03
04
05
06
07
18
x9
1:
1;
1<
0=
0>
0?
0@
0A
0B
0C
0D
0E
0F
0G
0H
0I
0J
0K
0L
0M
0N
0O
0P
0Q
0R
0S
0T
0U
0V
0W
0X
0Y
0Z
0[
0\
$end
#33333
1!
1P
1S
1T
1=
1E
1(
1'
#38462
1"
1O
0S
0T
0=
0E
0(
0'
#45455
1#
1R
#55556
1$
1Q
#66666
0!
0P
#71429
1%
1N
#76923
0"
0O
#90909
0#
0R
#99999
1!
1P
1U
1X
1@
1H
1.
1-
#100000
1&
1M
1\
0X
0@
0H
1D
1L
16
15
0.
0-
#111111
0$
0Q
0U
1S
0\
1[
1C
1K
0D
0L
06
05
14
13
#115385
1"
1O
0S
0[
0C
0K
04
03
#133332
0!
0P
#136364
1#
1R
#142857
0%
0N
#153846
0"
0O
#166665
1!
1P
#166667
1$
1Q
#181818
0#
0R
1U
1Z
1B
1J
12
11
#192308
1"
1O
0U
0Z
0B
0J
02
01
#199998
0!
0P
#200000
0&
0M
#214286
1%
1N
#222222
0$
0Q
#227273
1#
1R
#230769
0"
0O
#233331
1!
1P
#266664
0!
0P
#269231
1"
1O
#272727
0#
0R
#277778
1$
1Q
#285714
0%
0N
#299997
1!
1P
#300000
1&
1M
#307692
0"
0O
1U
1Z
1B
1J
12
11
#318182
1#
1R
0U
0Z
0B
0J
02
01
#333330
0!
0P
#333333
0$
0Q
#346154
1"
1O
#357143
1%
1N
#363636
0#
0R
#366663
1!
1P
#384615
0"
0O
1S
1[
1C
1K
14
13
#388889
1$
1Q
1U
0S
1\
0[
0C
0K
1D
1L
16
15
04
03
#399996
0!
0P
0U
0\
0D
0L
06
05
#400000
0&
0M
#409091
1#
1R
#423077
1"
1O
#428571
0%
0N
#433329
1!
1P
#444444
0$
0Q
#454545
0#
0R
#461538
0"
0O
1S
1T
1=
1E
1(
1'
#466662
0!
0P
0S
0T
0=
0E
0(
0'
#499995
1!
1P
1S
1T
1=
1E
1(
1'
#500000
1&
1%
1$
1#
1"
1M
1N
1Q
1R
1O
0S
1[
0T
0=
0E
1C
1K
14
13
0(
0'
0[
0C
0K
04
03
#533328
0!
0P
#538461
0"
0O
#545454
0#
0R
#555555
0$
0Q
#566661
1!
1P
1S
1[
1C
1K
14
13
#571428
0%
0N
0[
1Y
1A
1I
0C
0K
04
03
10
1/
#576923
1"
1O
0S
0Y
0A
0I
00
0/
#590909
1#
1R
#599994
0!
0P
#600000
0&
0M
#611111
1$
1Q
#615384
0"
0O
#633327
1!
1P
#636363
0#
0R
1U
1V
1>
1F
1*
1)
#642857
1%
1N
1X
0V
0>
0F
1@
1H
1.
1-
0*
0)
#653846
1"
1O
0U
0X
0@
0H
0.
0-
#666660
0!
0P
#666666
0$
0Q
#681818
1#
1R
#692307
0"
0O
#699993
1!
1P
#700000
1&
1M
#714285
0%
0N
#722222
1$
1Q
#727272
0#
0R
1U
1Z
1B
1J
12
11
#730769
1"
1O
0U
0Z
0B
0J
02
01
#733326
0!
0P
#766659
1!
1P
#769230
0"
0O
1U
1Z
1B
1J
12
11
#772727
1#
1R
0U
0Z
0B
0J
02
01
#777777
0$
0Q
#785714
1%
1N
#799992
0!
0P
#800000
0&
0M
#807692
1"
1O
#818181
0#
0R
#833325
1!
1P
#833333
1$
1Q
#846153
0"
0O
1U
1X
1@
1H
1.
1-
#857142
0%
0N
0X
1V
1>
1F
0@
0H
0.
0-
1*
1)
#863636
1#
1R
0U
0V
0>
0F
0*
0)
#866658
0!
0P
#884615
1"
1O
#888888
0$
0Q
#899991
1!
1P
#900000
1&
1M
#909090
0#
0R
#923076
0"
0O
1S
1Y
1A
1I
10
1/
#928571
1%
1N
1[
0Y
0A
0I
1C
1K
14
13
00
0/
#933324
0!
0P
0S
0[
0C
0K
04
03
#944444
1$
1Q
#954545
1#
1R
#961538
1"
1O
#966657
1!
1P
#999990
0!
0P
#999999
0%
0$
0#
0"
0N
0Q
0R
0O
