lab7/lab7_adder/simulation/qsim/lab7_adder.msim.vcd
$comment
	File created using the following command:
		vcd file lab7_adder.msim.vcd -direction
$end
$date
	Thu Dec 05 10:24:17 2024
$end
$version
	ModelSim Version 2020.1
$end
$timescale
	1ps
$end

$scope module lab7_adder_vlg_vec_tst $end
$var reg 1 ! inA0 $end
$var reg 1 " inA1 $end
$var reg 1 # inB0 $end
$var reg 1 $ inB1 $end
$var reg 1 % inC $end
$var wire 1 & outP_1 $end
$var wire 1 ' outP_2 $end
$var wire 1 ( outS0_2 $end
$var wire 1 ) outS1_1 $end
$var wire 1 * outS1_2 $end
$var wire 1 + outS2_1 $end

$scope module i1 $end
$var wire 1 , gnd $end
$var wire 1 - vcc $end
$var wire 1 . unknown $end
$var tri1 1 / devclrn $end
$var tri1 1 0 devpor $end
$var tri1 1 1 devoe $end
$var wire 1 2 outS1_1~output_o $end
$var wire 1 3 outS2_1~output_o $end
$var wire 1 4 outP_1~output_o $end
$var wire 1 5 outS0_2~output_o $end
$var wire 1 6 outS1_2~output_o $end
$var wire 1 7 outP_2~output_o $end
$var wire 1 8 inB0~input_o $end
$var wire 1 9 inA0~input_o $end
$var wire 1 : inC~input_o $end
$var wire 1 ; inst|S0~0_combout $end
$var wire 1 < inst|carry0~1_combout $end
$var wire 1 = inB1~input_o $end
$var wire 1 > inA1~input_o $end
$var wire 1 ? inst|carry0~0_combout $end
$var wire 1 @ inst|S1~combout $end
$var wire 1 A inst|P~0_combout $end
$upscope $end
$upscope $end
$enddefinitions $end
#0
$dumpvars
0!
0"
0#
0$
0%
0&
0'
0(
0)
0*
0+
0,
1-
x.
1/
10
11
02
03
04
05
06
07
08
09
0:
0;
0<
0=
0>
0?
0@
0A
$end
#45455
1%
1:
1;
12
15
1(
1)
#55556
1$
1=
1@
13
16
1*
1+
#71429
1#
18
1?
0;
02
05
0(
0)
1A
0@
03
06
14
17
1'
1&
0*
0+
#90909
0%
0:
0?
1;
12
15
1(
1)
0A
1@
13
16
04
07
0'
0&
1*
1+
#100000
1"
1>
1A
0@
03
06
14
17
1'
1&
0*
0+
#111111
0$
0=
0A
1@
13
16
04
07
0'
0&
1*
1+
#136364
1%
1:
1?
0;
02
05
0(
0)
1A
0@
03
06
14
17
1'
1&
0*
0+
#142857
0#
08
0?
1;
12
15
1(
1)
0A
1@
13
16
04
07
0'
0&
1*
1+
#166667
1!
1$
19
1=
1<
0;
1A
0@
03
06
14
17
02
05
0(
0)
1'
1&
0*
0+
1@
13
16
1*
1+
#181818
0%
0:
0<
1;
12
15
1(
1)
0@
03
06
0*
0+
#200000
0"
0>
0A
1@
13
16
04
07
0'
0&
1*
1+
#214286
1#
18
1<
0;
02
05
0(
0)
1A
0@
03
06
14
17
1'
1&
0*
0+
#222222
0$
0=
0A
1@
13
16
04
07
0'
0&
1*
1+
#227273
1%
1:
1?
1;
12
15
1(
1)
#272727
0%
0:
0?
0;
02
05
0(
0)
#277778
1$
1=
1A
0@
03
06
14
17
1'
1&
0*
0+
#285714
0#
08
0<
1;
12
15
1(
1)
0A
1@
13
16
04
07
0'
0&
1*
1+
#300000
1"
1>
1A
0@
03
06
14
17
1'
1&
0*
0+
#318182
1%
1:
1<
0;
02
05
0(
0)
1@
13
16
1*
1+
#333333
0!
0$
09
0=
0<
1;
0@
03
06
12
15
1(
1)
0*
0+
0A
1@
13
16
04
07
0'
0&
1*
1+
#357143
1#
18
1?
0;
02
05
0(
0)
1A
0@
03
06
14
17
1'
1&
0*
0+
#363636
0%
0:
0?
1;
12
15
1(
1)
0A
1@
13
16
04
07
0'
0&
1*
1+
#388889
1$
1=
1A
0@
03
06
14
17
1'
1&
0*
0+
#400000
0"
0>
0A
1@
13
16
04
07
0'
0&
1*
1+
#409091
1%
1:
1?
0;
02
05
0(
0)
1A
0@
03
06
14
17
1'
1&
0*
0+
#428571
0#
08
0?
1;
12
15
1(
1)
0A
1@
13
16
04
07
0'
0&
1*
1+
#444444
0$
0=
0@
03
06
0*
0+
#454545
0%
0:
0;
02
05
0(
0)
#500000
1!
1"
1#
1$
1%
19
1>
18
1=
1:
1<
1?
1;
1A
14
17
12
15
1(
1)
1'
1&
1@
13
16
1*
1+
#545454
0%
0:
0?
0;
02
05
0(
0)
#555555
0$
0=
0@
03
06
0*
0+
#571428
0#
08
0<
1;
12
15
1(
1)
0A
1@
13
16
04
07
0'
0&
1*
1+
#590909
1%
1:
1<
0;
02
05
0(
0)
1A
0@
03
06
14
17
1'
1&
0*
0+
#600000
0"
0>
0A
1@
13
16
04
07
0'
0&
1*
1+
#611111
1$
1=
1A
0@
03
06
14
17
1'
1&
0*
0+
#636363
0%
0:
0<
1;
12
15
1(
1)
0A
1@
13
16
04
07
0'
0&
1*
1+
#642857
1#
18
1<
0;
02
05
0(
0)
1A
0@
03
06
14
17
1'
1&
0*
0+
#666666
0!
0$
09
0=
0<
1;
0A
1@
13
16
04
07
12
15
1(
1)
0'
0&
1*
1+
0@
03
06
0*
0+
#681818
1%
1:
1?
0;
02
05
0(
0)
1@
13
16
1*
1+
#700000
1"
1>
1A
0@
03
06
14
17
1'
1&
0*
0+
#714285
0#
08
0?
1;
12
15
1(
1)
0A
1@
13
16
04
07
0'
0&
1*
1+
#722222
1$
1=
1A
0@
03
06
14
17
1'
1&
0*
0+
#727272
0%
0:
0;
02
05
0(
0)
#772727
1%
1:
1;
12
15
1(
1)
#777777
0$
0=
0A
1@
13
16
04
07
0'
0&
1*
1+
#785714
1#
18
1?
0;
02
05
0(
0)
1A
0@
03
06
14
17
1'
1&
0*
0+
#800000
0"
0>
0A
1@
13
16
04
07
0'
0&
1*
1+
#818181
0%
0:
0?
1;
12
15
1(
1)
0@
03
06
0*
0+
#833333
1!
1$
19
1=
1<
0;
1@
13
16
02
05
0(
0)
1*
1+
1A
0@
03
06
14
17
1'
1&
0*
0+
#857142
0#
08
0<
1;
12
15
1(
1)
0A
1@
13
16
04
07
0'
0&
1*
1+
#863636
1%
1:
1<
0;
02
05
0(
0)
1A
0@
03
06
14
17
1'
1&
0*
0+
#888888
0$
0=
0A
1@
13
16
04
07
0'
0&
1*
1+
#900000
1"
1>
1A
0@
03
06
14
17
1'
1&
0*
0+
#909090
0%
0:
0<
1;
12
15
1(
1)
0A
1@
13
16
04
07
0'
0&
1*
1+
#928571
1#
18
1<
0;
02
05
0(
0)
1A
0@
03
06
14
17
1'
1&
0*
0+
#944444
1$
1=
1@
13
16
1*
1+
#954545
1%
1:
1?
1;
12
15
1(
1)
#999999
0!
0#
0$
0%
09
08
0=
0:
0<
0?
0;
0@
03
06
02
05
0(
0)
0*
0+
0A
1@
13
16
04
07
0'
0&
1*
1+
